<?xml version="1.0" encoding="utf-8"?>
<!-- Generator: Adobe Illustrator 23.0.0, SVG Export Plug-In . SVG Version: 6.00 Build 0)  -->
<svg version="1.1" id="Слой_1" xmlns="http://www.w3.org/2000/svg" xmlns:xlink="http://www.w3.org/1999/xlink" x="0px" y="0px"
	 viewBox="0 0 24 24" style="enable-background:new 0 0 24 24;" xml:space="preserve">
<style type="text/css">
	.st0{fill:none;}
</style>
<path class="st0" d="M1,0h24v24H1V0z"/>
<g>
	<g>
		<path d="M20.5,3.5C18.2,1.2,15.2,0,12,0S5.8,1.2,3.5,3.5S0,8.8,0,12s1.2,6.2,3.5,8.5S8.8,24,12,24s6.2-1.2,8.5-3.5S24,15.2,24,12
			S22.8,5.8,20.5,3.5z M12,22.6C6.2,22.6,1.4,17.8,1.4,12S6.2,1.4,12,1.4S22.6,6.2,22.6,12S17.8,22.6,12,22.6z"/>
	</g>
</g>
<g>
	<g>
		<path d="M12.8,11.3h-1.5c-0.9,0-1.6-0.7-1.6-1.6c0-0.9,0.7-1.6,1.6-1.6h3c0.4,0,0.7-0.3,0.7-0.7s-0.3-0.7-0.7-0.7h-1.6V5.2
			c0-0.4-0.3-0.7-0.7-0.7s-0.7,0.3-0.7,0.7v1.6l0,0c-1.6,0-3,1.3-3,3s1.3,3,3,3h1.5c0.9,0,1.6,0.7,1.6,1.6c0,0.9-0.7,1.6-1.6,1.6h-3
			c-0.4,0-0.7,0.3-0.7,0.7c0,0.4,0.3,0.7,0.7,0.7h1.6V19c0,0.4,0.3,0.7,0.7,0.7s0.7-0.3,0.7-0.7v-1.6h0.1c1.6,0,3-1.3,3-3
			S14.4,11.3,12.8,11.3z"/>
	</g>
</g>
</svg>
