<?xml version="1.0" encoding="utf-8"?>
<!-- Generator: Adobe Illustrator 23.0.0, SVG Export Plug-In . SVG Version: 6.00 Build 0)  -->
<svg version="1.1" id="Слой_1" xmlns="http://www.w3.org/2000/svg" xmlns:xlink="http://www.w3.org/1999/xlink" x="0px" y="0px"
	 viewBox="0 0 24 24" style="enable-background:new 0 0 24 24;" xml:space="preserve">
<style type="text/css">
	.st0{fill:none;}
</style>
<path class="st0" d="M1,0h24v24H1V0z"/>
<g>
	<path d="M23.3,5.7c-0.4,0-0.7-0.3-0.7-0.7c0-0.4-0.3-0.7-0.7-0.7H2.1C1.7,4.3,1.4,4.6,1.4,5S1.1,5.7,0.7,5.7S0,6,0,6.4v11.3
		c0,0.4,0.3,0.7,0.7,0.7s0.7,0.3,0.7,0.7c0,0.4,0.3,0.7,0.7,0.7h19.8c0.4,0,0.7-0.3,0.7-0.7c0-0.4,0.3-0.7,0.7-0.7
		c0.4,0,0.7-0.3,0.7-0.7V6.4C24,6,23.7,5.7,23.3,5.7z M22.6,17c-0.6,0.2-1.1,0.7-1.3,1.3h-5.7v-0.7c0-0.4-0.3-0.7-0.7-0.7
		s-0.7,0.3-0.7,0.7v0.7H2.7c-0.2-0.6-0.7-1-1.3-1.3V7C2,6.7,2.5,6.3,2.7,5.7h11.5v0.7c0,0.4,0.3,0.7,0.7,0.7s0.7-0.3,0.7-0.7V5.7
		h5.7c0.2,0.6,0.7,1,1.3,1.3V17z"/>
	<path d="M14.9,8.5c-0.4,0-0.7,0.3-0.7,0.7v1.4c0,0.4,0.3,0.7,0.7,0.7s0.7-0.3,0.7-0.7V9.2C15.6,8.8,15.2,8.5,14.9,8.5z"/>
	<path d="M14.9,12.7c-0.4,0-0.7,0.3-0.7,0.7v1.4c0,0.4,0.3,0.7,0.7,0.7s0.7-0.3,0.7-0.7v-1.4C15.6,13,15.2,12.7,14.9,12.7z"/>
	<path d="M17.7,7.1c-0.4,0-0.7,0.3-0.7,0.7v8.4c0,0.4,0.3,0.7,0.7,0.7s0.7-0.3,0.7-0.7V7.8C18.4,7.4,18.1,7.1,17.7,7.1z"/>
	<path d="M20.5,8.5c-0.4,0-0.7,0.3-0.7,0.7v5.6c0,0.4,0.3,0.7,0.7,0.7s0.7-0.3,0.7-0.7V9.2C21.2,8.8,20.9,8.5,20.5,8.5z"/>
	<polygon points="8.8,10.5 7.5,8 6.2,10.5 3.4,10.9 5.5,12.8 5,15.6 7.5,14.3 10,15.6 9.5,12.8 11.6,10.9 	"/>
</g>
</svg>
